 CREATE SEQUENCE pessoaId_CONT;
                                     CREATE SEQUENCE TurmaId_CONT;
                                     create table pessoa (pessoaId INT(11)  NOT NULL nextval('pessoaId_CONT'),pessoaNome VARCHAR(255) NULL DEFAULT NULL  ,pessoaIdade  DATE NULL DEFAULT NULL ,pessoadia  text   ,PRIMARY KEY (pessoaId));
                
                


 create table turma (TurmaId INT(11)  NOT NULL nextval('TurmaId_CONT'),TurmanOME VARCHAR(255) NULL DEFAULT NULL   ,PRIMARY KEY (TurmaId));
                
                


 
                create table pessoa_turma1(
	pessoa INT(11) NOT NULL,
	turma INT(11) NOT NULL,
            PRIMARY KEY(pessoa,turma),
	CONSTRAINT FK_TurmapessoaTurma1 FOREIGN KEY (turma) REFERENCES turma (TurmaId),
	CONSTRAINT FK_Turmapessoapessoa1 FOREIGN KEY (pessoa) REFERENCES pessoa (pessoaId))

;
