 CREATE SEQUENCE aId_CONT;
                                     create table a (aId INT(11)  NOT NULL nextval('aId_CONT'),aa VARCHAR(255) NULL DEFAULT NULL   ,PRIMARY KEY (aId));
                
                



